Tidying and exporting data, reproducing figures
…
surveys

## # A tibble: 34,786 x 13
##    record_id month   day  year plot_id species_id   sex hindfoot_length
##        <int> <int> <int> <int>   <int>      <chr> <chr>           <int>
##  1         1     7    16  1977       2         NL     M              32
##  2        72     8    19  1977       2         NL     M              31
##  3       224     9    13  1977       2         NL  <NA>              NA
##  4       266    10    16  1977       2         NL  <NA>              NA
##  5       349    11    12  1977       2         NL  <NA>              NA
##  6       363    11    12  1977       2         NL  <NA>              NA
##  7       435    12    10  1977       2         NL  <NA>              NA
##  8       506     1     8  1978       2         NL  <NA>              NA
##  9       588     2    18  1978       2         NL     M              NA
## 10       661     3    11  1978       2         NL  <NA>              NA
## # ... with 34,776 more rows, and 5 more variables: weight <int>,
## #   genus <chr>, species <chr>, taxa <chr>, plot_type <chr>
…
surveys

## # A tibble: 34,786 x 13
##    record_id month   day  year plot_id species_id   sex hindfoot_length
##        <int> <int> <int> <int>   <int>      <chr> <chr>           <int>
##  1         1     7    16  1977       2         NL     M              32
##  2        72     8    19  1977       2         NL     M              31
##  3       224     9    13  1977       2         NL  <NA>              NA
##  4       266    10    16  1977       2         NL  <NA>              NA
##  5       349    11    12  1977       2         NL  <NA>              NA
##  6       363    11    12  1977       2         NL  <NA>              NA
##  7       435    12    10  1977       2         NL  <NA>              NA
##  8       506     1     8  1978       2         NL  <NA>              NA
##  9       588     2    18  1978       2         NL     M              NA
## 10       661     3    11  1978       2         NL  <NA>              NA
## # ... with 34,776 more rows, and 5 more variables: weight <int>,
## #   genus <chr>, species <chr>, taxa <chr>, plot_type <chr>
…
