Introduction to course
…
When you open a file in Excel, it will immediately display the content in the window. Likewise, the R console will display the information of the data set when you read it in. This sample data set that we are using for this class describes the length and width of sepals and petals for three species of iris flowers.

read_csv('./iris.csv') # need to dry run this with windows path names...

## Parsed with column specification:
## cols(
##   sepal_length = col_double(),
##   sepal_width = col_double(),
##   petal_length = col_double(),
##   petal_width = col_double(),
##   species = col_character()
## )

## # A tibble: 150 x 5
##    sepal_length sepal_width petal_length petal_width species
##           <dbl>       <dbl>        <dbl>       <dbl>   <chr>
##  1          5.1         3.5          1.4         0.2  setosa
##  2          4.9         3.0          1.4         0.2  setosa
##  3          4.7         3.2          1.3         0.2  setosa
##  4          4.6         3.1          1.5         0.2  setosa
##  5          5.0         3.6          1.4         0.2  setosa
##  6          5.4         3.9          1.7         0.4  setosa
##  7          4.6         3.4          1.4         0.3  setosa
##  8          5.0         3.4          1.5         0.2  setosa
##  9          4.4         2.9          1.4         0.2  setosa
## 10          4.9         3.1          1.5         0.1  setosa
## # ... with 140 more rows
…
